sample.out

North's turn:
           N1    N2    N3    N4    N5    N6
          [ 6]  [ 0]  [ 9]  [ 2]  [ 0]  [ 1]
  N0 [ 2]                                    [12] S0
          [ 0]  [ 0]  [ 0]  [ 8]  [ 8]  [ 0]
           S6    S5    S4    S3    S2    S1

Please enter a pit number for North (q to quit):
Quitting game at user's request
Game over -- goodbye!

---------------------------------------------------------------
Normal termination.


sample2.out

----------
North's turn:
           N1    N2    N3    N4    N5    N6
          [ 5]  [ 5]  [ 5]  [ 0]  [ 5]  [ 0]
  N0 [ 1]                                    [ 7] S0
          [ 0]  [ 5]  [ 5]  [ 5]  [ 5]  [ 0]
           S6    S5    S4    S3    S2    S1

Please enter a pit number for North (q to quit):
Quitting game at user's request
Game over -- goodbye!

sample3.out
Results:

         N1    N2    N3
        [ 0]  [ 0]  [ 0]
N0 [ 7]                  [ 5] S0
         S3    S2    S1
        [ 0]  [ 0]  [ 0]
North's Score: 7
South's Score: 5
North wins!
Game over -- goodbye!